-------------------------------------------------------------------------------------
Benchmark                                              Time           CPU Iterations
-------------------------------------------------------------------------------------
[0;32mpauseAndResume/1                              [m[0;33m       139 ns        141 ns [m[0;36m   4989686[m
[m[0;32mpauseAndResume/2                              [m[0;33m       139 ns        141 ns [m[0;36m   4957043[m
[m[0;32mpauseAndResume/4                              [m[0;33m       139 ns        141 ns [m[0;36m   4991259[m
[m[0;32mpauseAndResume/8                              [m[0;33m       139 ns        141 ns [m[0;36m   4988577[m
[m[0;32mpauseAndResume/16                             [m[0;33m       139 ns        141 ns [m[0;36m   4993067[m
[m[0;32mpauseAndResume/32                             [m[0;33m       139 ns        141 ns [m[0;36m   4995234[m
[m[0;32mpauseAndResume/64                             [m[0;33m       139 ns        140 ns [m[0;36m   4989078[m
[m[0;32mpauseAndResume/128                            [m[0;33m       139 ns        140 ns [m[0;36m   4984505[m
[m[0;32mpauseAndResume/256                            [m[0;33m       139 ns        141 ns [m[0;36m   4989469[m
[m[0;32mMapAtBench<Small>/1                           [m[0;33m         2 ns          2 ns [m[0;36m 418756088[m
[m[0;32mMapAtBench<Small>/2                           [m[0;33m         2 ns          2 ns [m[0;36m 299910098[m
[m[0;32mMapAtBench<Small>/4                           [m[0;33m         3 ns          3 ns [m[0;36m 254567816[m
[m[0;32mMapAtBench<Small>/8                           [m[0;33m         3 ns          3 ns [m[0;36m 223646490[m
[m[0;32mMapAtBench<Small>/16                          [m[0;33m         5 ns          5 ns [m[0;36m 149172884[m
[m[0;32mMapAtBench<Small>/32                          [m[0;33m         6 ns          6 ns [m[0;36m 120536964[m
[m[0;32mMapAtBench<Small>/64                          [m[0;33m         7 ns          7 ns [m[0;36m 105289941[m
[m[0;32mMapAtBench<Small>/128                         [m[0;33m         8 ns          8 ns [m[0;36m  86235158[m
[m[0;34mMapAtBench<Small>_BigO                        [m[0;33m      1.13 lgN       1.13 lgN [m
[m[0;34mMapAtBench<Small>_RMS                         [m[0;33m        18 %         18 % [m
[m[0;32mMapAtBench<Medium>/1                          [m[0;33m       409 ns        409 ns [m[0;36m   1711610[m
[m[0;32mMapAtBench<Medium>/2                          [m[0;33m       600 ns        600 ns [m[0;36m   1169882[m
[m[0;32mMapAtBench<Medium>/4                          [m[0;33m       802 ns        802 ns [m[0;36m    873347[m
[m[0;32mMapAtBench<Medium>/8                          [m[0;33m       982 ns        982 ns [m[0;36m    701784[m
[m[0;32mMapAtBench<Medium>/16                         [m[0;33m      1360 ns       1360 ns [m[0;36m    510931[m
[m[0;32mMapAtBench<Medium>/32                         [m[0;33m      1762 ns       1762 ns [m[0;36m    395964[m
[m[0;32mMapAtBench<Medium>/64                         [m[0;33m      2141 ns       2141 ns [m[0;36m    328254[m
[m[0;32mMapAtBench<Medium>/128                        [m[0;33m      2523 ns       2523 ns [m[0;36m    276386[m
[m[0;32mMapAtBench<Medium>/256                        [m[0;33m      2908 ns       2908 ns [m[0;36m    241356[m
[m[0;32mMapAtBench<Medium>/512                        [m[0;33m      3291 ns       3291 ns [m[0;36m    212937[m
[m[0;32mMapAtBench<Medium>/1024                       [m[0;33m      3721 ns       3721 ns [m[0;36m    190652[m
[m[0;34mMapAtBench<Medium>_BigO                       [m[0;33m    363.62 lgN     363.63 lgN [m
[m[0;34mMapAtBench<Medium>_RMS                        [m[0;33m         8 %          8 % [m
[m[0;32mMapAtBench<Large>/1                           [m[0;33m    316326 ns     316332 ns [m[0;36m      2225[m
[m[0;32mMapAtBench<Large>/2                           [m[0;33m    405684 ns     405688 ns [m[0;36m      1670[m
[m[0;32mMapAtBench<Large>/4                           [m[0;33m    508198 ns     508207 ns [m[0;36m      1392[m
[m[0;32mMapAtBench<Large>/8                           [m[0;33m    647421 ns     647433 ns [m[0;36m      1080[m
[m[0;32mMapAtBench<Large>/16                          [m[0;33m    941615 ns     941631 ns [m[0;36m       738[m
[m[0;32mMapAtBench<Large>/32                          [m[0;33m   1216604 ns    1216611 ns [m[0;36m       580[m
[m[0;32mMapAtBench<Large>/64                          [m[0;33m   1468610 ns    1468635 ns [m[0;36m       475[m
[m[0;32mMapAtBench<Large>/128                         [m[0;33m   1731007 ns    1731019 ns [m[0;36m       394[m
[m[0;32mMapAtBench<Large>/256                         [m[0;33m   1982757 ns    1982766 ns [m[0;36m       352[m
[m[0;34mMapAtBench<Large>_BigO                        [m[0;33m 245120.52 lgN  245122.79 lgN [m
[m[0;34mMapAtBench<Large>_RMS                         [m[0;33m        12 %         12 % [m
[m[0;32mMapSquareBracketsBench<Small>/1               [m[0;33m         1 ns          1 ns [m[0;36m 487723658[m
[m[0;32mMapSquareBracketsBench<Small>/2               [m[0;33m         2 ns          2 ns [m[0;36m 300129077[m
[m[0;32mMapSquareBracketsBench<Small>/4               [m[0;33m         2 ns          2 ns [m[0;36m 289448710[m
[m[0;32mMapSquareBracketsBench<Small>/8               [m[0;33m         4 ns          4 ns [m[0;36m 170155833[m
[m[0;32mMapSquareBracketsBench<Small>/16              [m[0;33m         5 ns          5 ns [m[0;36m 138815344[m
[m[0;32mMapSquareBracketsBench<Small>/32              [m[0;33m         6 ns          6 ns [m[0;36m 116596196[m
[m[0;32mMapSquareBracketsBench<Small>/64              [m[0;33m         7 ns          7 ns [m[0;36m 100153237[m
[m[0;32mMapSquareBracketsBench<Small>/128             [m[0;33m         8 ns          8 ns [m[0;36m  83294520[m
[m[0;34mMapSquareBracketsBench<Small>_BigO            [m[0;33m      1.21 lgN       1.21 lgN [m
[m[0;34mMapSquareBracketsBench<Small>_RMS             [m[0;33m        15 %         15 % [m
[m[0;32mMapSquareBracketsBench<Medium>/1              [m[0;33m       409 ns        409 ns [m[0;36m   1705694[m
[m[0;32mMapSquareBracketsBench<Medium>/2              [m[0;33m       603 ns        603 ns [m[0;36m   1159385[m
[m[0;32mMapSquareBracketsBench<Medium>/4              [m[0;33m       797 ns        797 ns [m[0;36m    878233[m
[m[0;32mMapSquareBracketsBench<Medium>/8              [m[0;33m       998 ns        998 ns [m[0;36m    693236[m
[m[0;32mMapSquareBracketsBench<Medium>/16             [m[0;33m      1383 ns       1383 ns [m[0;36m    510183[m
[m[0;32mMapSquareBracketsBench<Medium>/32             [m[0;33m      1769 ns       1769 ns [m[0;36m    395652[m
[m[0;32mMapSquareBracketsBench<Medium>/64             [m[0;33m      2138 ns       2138 ns [m[0;36m    325502[m
[m[0;32mMapSquareBracketsBench<Medium>/128            [m[0;33m      2518 ns       2518 ns [m[0;36m    277885[m
[m[0;32mMapSquareBracketsBench<Medium>/256            [m[0;33m      2895 ns       2895 ns [m[0;36m    241584[m
[m[0;32mMapSquareBracketsBench<Medium>/512            [m[0;33m      3301 ns       3301 ns [m[0;36m    211571[m
[m[0;32mMapSquareBracketsBench<Medium>/1024           [m[0;33m      3675 ns       3675 ns [m[0;36m    188798[m
[m[0;34mMapSquareBracketsBench<Medium>_BigO           [m[0;33m    362.70 lgN     362.70 lgN [m
[m[0;34mMapSquareBracketsBench<Medium>_RMS            [m[0;33m         8 %          8 % [m
[m[0;32mMapSquareBracketsBench<Large>/1               [m[0;33m    331832 ns     331835 ns [m[0;36m      2154[m
[m[0;32mMapSquareBracketsBench<Large>/2               [m[0;33m    417876 ns     417880 ns [m[0;36m      1696[m
[m[0;32mMapSquareBracketsBench<Large>/4               [m[0;33m    560138 ns     548359 ns [m[0;36m      1235[m
[m[0;32mMapSquareBracketsBench<Large>/8               [m[0;33m    718136 ns     701301 ns [m[0;36m      1042[m
[m[0;32mMapSquareBracketsBench<Large>/16              [m[0;33m   1013479 ns    1013487 ns [m[0;36m       658[m
[m[0;32mMapSquareBracketsBench<Large>/32              [m[0;33m   1261293 ns    1261303 ns [m[0;36m       572[m
[m[0;32mMapSquareBracketsBench<Large>/64              [m[0;33m   1467908 ns    1467908 ns [m[0;36m       480[m
[m[0;32mMapSquareBracketsBench<Large>/128             [m[0;33m   1726434 ns    1726444 ns [m[0;36m       400[m
[m[0;32mMapSquareBracketsBench<Large>/256             [m[0;33m   1967461 ns    1967475 ns [m[0;36m       350[m
[m[0;34mMapSquareBracketsBench<Large>_BigO            [m[0;33m 248456.45 lgN  248094.69 lgN [m
[m[0;34mMapSquareBracketsBench<Large>_RMS             [m[0;33m        12 %         12 % [m
[m[0;32mMapEmptyBench<Small>/1/iterations:10000       [m[0;33m         1 ns          0 ns [m[0;36m     10000[m
[m[0;32mMapEmptyBench<Small>/2/iterations:10000       [m[0;33m         0 ns          0 ns [m[0;36m     10000[m
[m[0;32mMapEmptyBench<Small>/4/iterations:10000       [m[0;33m         0 ns          0 ns [m[0;36m     10000[m
[m[0;32mMapEmptyBench<Small>/8/iterations:10000       [m[0;33m         0 ns          0 ns [m[0;36m     10000[m
[m[0;32mMapEmptyBench<Small>/16/iterations:10000      [m[0;33m         0 ns          0 ns [m[0;36m     10000[m
[m[0;32mMapEmptyBench<Small>/32/iterations:10000      [m[0;33m         0 ns          0 ns [m[0;36m     10000[m
[m[0;32mMapEmptyBench<Small>/64/iterations:10000      [m[0;33m         0 ns          0 ns [m[0;36m     10000[m
[m[0;32mMapEmptyBench<Small>/128/iterations:10000     [m[0;33m         0 ns          0 ns [m[0;36m     10000[m
[m[0;34mMapEmptyBench<Small>_BigO                     [m[0;33m      0.43 (1)       0.41 (1) [m
[m[0;34mMapEmptyBench<Small>_RMS                      [m[0;33m        14 %         14 % [m
[m[0;32mMapEmptyBench<Medium>/1/iterations:10000      [m[0;33m         0 ns          0 ns [m[0;36m     10000[m
[m[0;32mMapEmptyBench<Medium>/2/iterations:10000      [m[0;33m         0 ns          0 ns [m[0;36m     10000[m
[m[0;32mMapEmptyBench<Medium>/4/iterations:10000      [m[0;33m         0 ns          0 ns [m[0;36m     10000[m
[m[0;32mMapEmptyBench<Medium>/8/iterations:10000      [m[0;33m         0 ns          0 ns [m[0;36m     10000[m
[m[0;32mMapEmptyBench<Medium>/16/iterations:10000     [m[0;33m         0 ns          0 ns [m[0;36m     10000[m
[m[0;32mMapEmptyBench<Medium>/32/iterations:10000     [m[0;33m         0 ns          0 ns [m[0;36m     10000[m
[m[0;32mMapEmptyBench<Medium>/64/iterations:10000     [m[0;33m         0 ns          0 ns [m[0;36m     10000[m
[m[0;32mMapEmptyBench<Medium>/128/iterations:10000    [m[0;33m         0 ns          0 ns [m[0;36m     10000[m
[m[0;32mMapEmptyBench<Medium>/256/iterations:10000    [m[0;33m         0 ns          0 ns [m[0;36m     10000[m
[m[0;32mMapEmptyBench<Medium>/512/iterations:10000    [m[0;33m         0 ns          0 ns [m[0;36m     10000[m
[m[0;32mMapEmptyBench<Medium>/1024/iterations:10000   [m[0;33m         0 ns          0 ns [m[0;36m     10000[m
[m[0;34mMapEmptyBench<Medium>_BigO                    [m[0;33m      0.33 (1)       0.30 (1) [m
[m[0;34mMapEmptyBench<Medium>_RMS                     [m[0;33m        12 %          5 % [m
[m[0;32mMapEmptyBench<Large>/1/iterations:10000       [m[0;33m         0 ns          0 ns [m[0;36m     10000[m
[m[0;32mMapEmptyBench<Large>/2/iterations:10000       [m[0;33m         0 ns          0 ns [m[0;36m     10000[m
[m[0;32mMapEmptyBench<Large>/4/iterations:10000       [m[0;33m         0 ns          0 ns [m[0;36m     10000[m
[m[0;32mMapEmptyBench<Large>/8/iterations:10000       [m[0;33m         0 ns          0 ns [m[0;36m     10000[m
[m[0;32mMapEmptyBench<Large>/16/iterations:10000      [m[0;33m         0 ns          0 ns [m[0;36m     10000[m
[m[0;32mMapEmptyBench<Large>/32/iterations:10000      [m[0;33m         1 ns          0 ns [m[0;36m     10000[m
[m[0;32mMapEmptyBench<Large>/64/iterations:10000      [m[0;33m         0 ns          0 ns [m[0;36m     10000[m
[m[0;32mMapEmptyBench<Large>/128/iterations:10000     [m[0;33m         1 ns          1 ns [m[0;36m     10000[m
[m[0;32mMapEmptyBench<Large>/256/iterations:10000     [m[0;33m         0 ns          0 ns [m[0;36m     10000[m
[m[0;34mMapEmptyBench<Large>_BigO                     [m[0;33m      0.50 (1)       0.39 (1) [m
[m[0;34mMapEmptyBench<Large>_RMS                      [m[0;33m        22 %         24 % [m
[m[0;32mMapSizeBench<Small>/1/iterations:10000        [m[0;33m         0 ns          0 ns [m[0;36m     10000[m
[m[0;32mMapSizeBench<Small>/2/iterations:10000        [m[0;33m         0 ns          0 ns [m[0;36m     10000[m
[m[0;32mMapSizeBench<Small>/4/iterations:10000        [m[0;33m         0 ns          0 ns [m[0;36m     10000[m
[m[0;32mMapSizeBench<Small>/8/iterations:10000        [m[0;33m         0 ns          0 ns [m[0;36m     10000[m
[m[0;32mMapSizeBench<Small>/16/iterations:10000       [m[0;33m         0 ns          0 ns [m[0;36m     10000[m
[m[0;32mMapSizeBench<Small>/32/iterations:10000       [m[0;33m         0 ns          0 ns [m[0;36m     10000[m
[m[0;32mMapSizeBench<Small>/64/iterations:10000       [m[0;33m         0 ns          0 ns [m[0;36m     10000[m
[m[0;32mMapSizeBench<Small>/128/iterations:10000      [m[0;33m         0 ns          0 ns [m[0;36m     10000[m
[m[0;34mMapSizeBench<Small>_BigO                      [m[0;33m      0.33 (1)       0.32 (1) [m
[m[0;34mMapSizeBench<Small>_RMS                       [m[0;33m        11 %         10 % [m
[m[0;32mMapSizeBench<Medium>/1/iterations:10000       [m[0;33m         0 ns          0 ns [m[0;36m     10000[m
[m[0;32mMapSizeBench<Medium>/2/iterations:10000       [m[0;33m         0 ns          0 ns [m[0;36m     10000[m
[m[0;32mMapSizeBench<Medium>/4/iterations:10000       [m[0;33m         0 ns          0 ns [m[0;36m     10000[m
[m[0;32mMapSizeBench<Medium>/8/iterations:10000       [m[0;33m         0 ns          0 ns [m[0;36m     10000[m
[m[0;32mMapSizeBench<Medium>/16/iterations:10000      [m[0;33m         0 ns          0 ns [m[0;36m     10000[m
[m[0;32mMapSizeBench<Medium>/32/iterations:10000      [m[0;33m         0 ns          0 ns [m[0;36m     10000[m
[m[0;32mMapSizeBench<Medium>/64/iterations:10000      [m[0;33m         0 ns          0 ns [m[0;36m     10000[m
[m[0;32mMapSizeBench<Medium>/128/iterations:10000     [m[0;33m         0 ns          0 ns [m[0;36m     10000[m
[m[0;32mMapSizeBench<Medium>/256/iterations:10000     [m[0;33m         0 ns          0 ns [m[0;36m     10000[m
[m[0;32mMapSizeBench<Medium>/512/iterations:10000     [m[0;33m         0 ns          0 ns [m[0;36m     10000[m
[m[0;32mMapSizeBench<Medium>/1024/iterations:10000    [m[0;33m         0 ns          0 ns [m[0;36m     10000[m
[m[0;34mMapSizeBench<Medium>_BigO                     [m[0;33m      0.31 (1)       0.28 (1) [m
[m[0;34mMapSizeBench<Medium>_RMS                      [m[0;33m        15 %         10 % [m
[m[0;32mMapSizeBench<Large>/1/iterations:10000        [m[0;33m         0 ns          0 ns [m[0;36m     10000[m
[m[0;32mMapSizeBench<Large>/2/iterations:10000        [m[0;33m         0 ns          0 ns [m[0;36m     10000[m
[m[0;32mMapSizeBench<Large>/4/iterations:10000        [m[0;33m         0 ns          0 ns [m[0;36m     10000[m
[m[0;32mMapSizeBench<Large>/8/iterations:10000        [m[0;33m         0 ns          0 ns [m[0;36m     10000[m
[m[0;32mMapSizeBench<Large>/16/iterations:10000       [m[0;33m         0 ns          0 ns [m[0;36m     10000[m
[m[0;32mMapSizeBench<Large>/32/iterations:10000       [m[0;33m         1 ns          0 ns [m[0;36m     10000[m
[m[0;32mMapSizeBench<Large>/64/iterations:10000       [m[0;33m         0 ns          0 ns [m[0;36m     10000[m
[m[0;32mMapSizeBench<Large>/128/iterations:10000      [m[0;33m         0 ns          0 ns [m[0;36m     10000[m
[m[0;32mMapSizeBench<Large>/256/iterations:10000      [m[0;33m         0 ns          0 ns [m[0;36m     10000[m
[m[0;34mMapSizeBench<Large>_BigO                      [m[0;33m      0.45 (1)       0.34 (1) [m
[m[0;34mMapSizeBench<Large>_RMS                       [m[0;33m        12 %          7 % [m
[m[0;32mMapMaxSizeBench<Small>/1/iterations:10000     [m[0;33m         0 ns          0 ns [m[0;36m     10000[m
[m[0;32mMapMaxSizeBench<Small>/2/iterations:10000     [m[0;33m         0 ns          0 ns [m[0;36m     10000[m
[m[0;32mMapMaxSizeBench<Small>/4/iterations:10000     [m[0;33m         0 ns          0 ns [m[0;36m     10000[m
[m[0;32mMapMaxSizeBench<Small>/8/iterations:10000     [m[0;33m         0 ns          0 ns [m[0;36m     10000[m
[m[0;32mMapMaxSizeBench<Small>/16/iterations:10000    [m[0;33m         0 ns          0 ns [m[0;36m     10000[m
[m[0;32mMapMaxSizeBench<Small>/32/iterations:10000    [m[0;33m         0 ns          0 ns [m[0;36m     10000[m
[m[0;32mMapMaxSizeBench<Small>/64/iterations:10000    [m[0;33m         0 ns          0 ns [m[0;36m     10000[m
[m[0;32mMapMaxSizeBench<Small>/128/iterations:10000   [m[0;33m         0 ns          0 ns [m[0;36m     10000[m
[m[0;34mMapMaxSizeBench<Small>_BigO                   [m[0;33m      0.30 (1)       0.29 (1) [m
[m[0;34mMapMaxSizeBench<Small>_RMS                    [m[0;33m        14 %          9 % [m
[m[0;32mMapMaxSizeBench<Medium>/1/iterations:10000    [m[0;33m         0 ns          0 ns [m[0;36m     10000[m
[m[0;32mMapMaxSizeBench<Medium>/2/iterations:10000    [m[0;33m         0 ns          0 ns [m[0;36m     10000[m
[m[0;32mMapMaxSizeBench<Medium>/4/iterations:10000    [m[0;33m         0 ns          0 ns [m[0;36m     10000[m
[m[0;32mMapMaxSizeBench<Medium>/8/iterations:10000    [m[0;33m         0 ns          0 ns [m[0;36m     10000[m
[m[0;32mMapMaxSizeBench<Medium>/16/iterations:10000   [m[0;33m         0 ns          0 ns [m[0;36m     10000[m
[m[0;32mMapMaxSizeBench<Medium>/32/iterations:10000   [m[0;33m         0 ns          0 ns [m[0;36m     10000[m
[m[0;32mMapMaxSizeBench<Medium>/64/iterations:10000   [m[0;33m         0 ns          0 ns [m[0;36m     10000[m
[m[0;32mMapMaxSizeBench<Medium>/128/iterations:10000  [m[0;33m         0 ns          0 ns [m[0;36m     10000[m
[m[0;32mMapMaxSizeBench<Medium>/256/iterations:10000  [m[0;33m         0 ns          0 ns [m[0;36m     10000[m
[m[0;32mMapMaxSizeBench<Medium>/512/iterations:10000  [m[0;33m         0 ns          0 ns [m[0;36m     10000[m
[m[0;32mMapMaxSizeBench<Medium>/1024/iterations:10000 [m[0;33m         0 ns          0 ns [m[0;36m     10000[m
[m[0;34mMapMaxSizeBench<Medium>_BigO                  [m[0;33m      0.31 (1)       0.28 (1) [m
[m[0;34mMapMaxSizeBench<Medium>_RMS                   [m[0;33m        16 %          8 % [m
[m[0;32mMapMaxSizeBench<Large>/1/iterations:10000     [m[0;33m         0 ns          0 ns [m[0;36m     10000[m
[m[0;32mMapMaxSizeBench<Large>/2/iterations:10000     [m[0;33m         0 ns          0 ns [m[0;36m     10000[m
[m[0;32mMapMaxSizeBench<Large>/4/iterations:10000     [m[0;33m         0 ns          0 ns [m[0;36m     10000[m
[m[0;32mMapMaxSizeBench<Large>/8/iterations:10000     [m[0;33m         0 ns          0 ns [m[0;36m     10000[m
[m[0;32mMapMaxSizeBench<Large>/16/iterations:10000    [m[0;33m         1 ns          0 ns [m[0;36m     10000[m
[m[0;32mMapMaxSizeBench<Large>/32/iterations:10000    [m[0;33m         0 ns          0 ns [m[0;36m     10000[m
[m[0;32mMapMaxSizeBench<Large>/64/iterations:10000    [m[0;33m         0 ns          0 ns [m[0;36m     10000[m
[m[0;32mMapMaxSizeBench<Large>/128/iterations:10000   [m[0;33m         1 ns          0 ns [m[0;36m     10000[m
[m[0;32mMapMaxSizeBench<Large>/256/iterations:10000   [m[0;33m         0 ns          0 ns [m[0;36m     10000[m
[m[0;34mMapMaxSizeBench<Large>_BigO                   [m[0;33m      0.46 (1)       0.33 (1) [m
[m[0;34mMapMaxSizeBench<Large>_RMS                    [m[0;33m         8 %          6 % [m
[m[0;32mMapClearBench<Small>/1                        [m[0;33m       143 ns        145 ns [m[0;36m   4832433[m
[m[0;32mMapClearBench<Small>/2                        [m[0;33m       153 ns        154 ns [m[0;36m   4555607[m
[m[0;32mMapClearBench<Small>/4                        [m[0;33m       162 ns        163 ns [m[0;36m   4295303[m
[m[0;32mMapClearBench<Small>/8                        [m[0;33m       180 ns        181 ns [m[0;36m   3847834[m
[m[0;32mMapClearBench<Small>/16                       [m[0;33m       239 ns        240 ns [m[0;36m   2946637[m
[m[0;32mMapClearBench<Small>/32                       [m[0;33m       333 ns        335 ns [m[0;36m   2102770[m
[m[0;32mMapClearBench<Small>/64                       [m[0;33m       535 ns        537 ns [m[0;36m   1305879[m
[m[0;32mMapClearBench<Small>/128                      [m[0;33m       987 ns        988 ns [m[0;36m    711903[m
[m[0;34mMapClearBench<Small>_BigO                     [m[0;33m      8.13 N       8.15 N [m
[m[0;34mMapClearBench<Small>_RMS                      [m[0;33m        31 %         31 % [m
[m[0;32mMapClearBench<Medium>/1                       [m[0;33m       142 ns        144 ns [m[0;36m   4869117[m
[m[0;32mMapClearBench<Medium>/2                       [m[0;33m       167 ns        169 ns [m[0;36m   4129150[m
[m[0;32mMapClearBench<Medium>/4                       [m[0;33m       186 ns        187 ns [m[0;36m   3778278[m
[m[0;32mMapClearBench<Medium>/8                       [m[0;33m       222 ns        222 ns [m[0;36m   3156568[m
[m[0;32mMapClearBench<Medium>/16                      [m[0;33m       319 ns        308 ns [m[0;36m   2259722[m
[m[0;32mMapClearBench<Medium>/32                      [m[0;33m       495 ns        484 ns [m[0;36m   1455709[m
[m[0;32mMapClearBench<Medium>/64                      [m[0;33m       771 ns        760 ns [m[0;36m    929116[m
[m[0;32mMapClearBench<Medium>/128                     [m[0;33m      1385 ns       1366 ns [m[0;36m    509153[m
[m[0;32mMapClearBench<Medium>/256                     [m[0;33m      2880 ns       2836 ns [m[0;36m    265039[m
[m[0;32mMapClearBench<Medium>/512                     [m[0;33m      5637 ns       5592 ns [m[0;36m    127208[m
[m[0;32mMapClearBench<Medium>/1024                    [m[0;33m     11053 ns      10988 ns [m[0;36m     63655[m
[m[0;34mMapClearBench<Medium>_BigO                    [m[0;33m     10.87 N      10.79 N [m
[m[0;34mMapClearBench<Medium>_RMS                     [m[0;33m         5 %          5 % [m
[m[0;32mMapClearBench<Large>/1/iterations:1000        [m[0;33m       141 ns        143 ns [m[0;36m      1000[m
[m[0;32mMapClearBench<Large>/2/iterations:1000        [m[0;33m       427 ns        318 ns [m[0;36m      1000[m
[m[0;32mMapClearBench<Large>/4/iterations:1000        [m[0;33m      2618 ns       1701 ns [m[0;36m      1000[m
[m[0;32mMapClearBench<Large>/8/iterations:1000        [m[0;33m      3536 ns       2199 ns [m[0;36m      1000[m
[m[0;32mMapClearBench<Large>/16/iterations:1000       [m[0;33m      4118 ns       2752 ns [m[0;36m      1000[m
[m[0;32mMapClearBench<Large>/32/iterations:1000       [m[0;33m      5900 ns       4256 ns [m[0;36m      1000[m
[m[0;32mMapClearBench<Large>/64/iterations:1000       [m[0;33m      8298 ns       6590 ns [m[0;36m      1000[m
[m[0;32mMapClearBench<Large>/128/iterations:1000      [m[0;33m     14045 ns      12388 ns [m[0;36m      1000[m
[m[0;32mMapClearBench<Large>/256/iterations:1000      [m[0;33m     24337 ns      22731 ns [m[0;36m      1000[m
[m[0;34mMapClearBench<Large>_BigO                     [m[0;33m    101.32 N      91.92 N [m
[m[0;34mMapClearBench<Large>_RMS                      [m[0;33m        27 %         17 % [m
[m[0;32mMapInsertBench<Small>/1                       [m[0;33m       142 ns        144 ns [m[0;36m   4950802[m
[m[0;32mMapInsertBench<Small>/2                       [m[0;33m       145 ns        146 ns [m[0;36m   4731302[m
[m[0;32mMapInsertBench<Small>/4                       [m[0;33m       163 ns        165 ns [m[0;36m   3932483[m
[m[0;32mMapInsertBench<Small>/8                       [m[0;33m       241 ns        243 ns [m[0;36m   3076357[m
[m[0;32mMapInsertBench<Small>/16                      [m[0;33m       360 ns        362 ns [m[0;36m   1945081[m
[m[0;32mMapInsertBench<Small>/32                      [m[0;33m       692 ns        693 ns [m[0;36m    932618[m
[m[0;32mMapInsertBench<Small>/64                      [m[0;33m      1112 ns       1114 ns [m[0;36m    633821[m
[m[0;32mMapInsertBench<Small>/128                     [m[0;33m      1883 ns       1885 ns [m[0;36m    354707[m
[m[0;34mMapInsertBench<Small>_BigO                    [m[0;33m     15.71 N      15.73 N [m
[m[0;34mMapInsertBench<Small>_RMS                     [m[0;33m        21 %         21 % [m
[m[0;32mMapInsertBench<Medium>/1                      [m[0;33m       146 ns        148 ns [m[0;36m   4527335[m
[m[0;32mMapInsertBench<Medium>/2                      [m[0;33m       145 ns        147 ns [m[0;36m   4849225[m
[m[0;32mMapInsertBench<Medium>/4                      [m[0;33m       270 ns        270 ns [m[0;36m   2623734[m
[m[0;32mMapInsertBench<Medium>/8                      [m[0;33m      1485 ns       1481 ns [m[0;36m    477515[m
[m[0;32mMapInsertBench<Medium>/16                     [m[0;33m      5070 ns       5070 ns [m[0;36m    138373[m
[m[0;32mMapInsertBench<Medium>/32                     [m[0;33m     17646 ns      17647 ns [m[0;36m     48312[m
[m[0;32mMapInsertBench<Medium>/64                     [m[0;33m     41224 ns      41228 ns [m[0;36m     18791[m
[m[0;32mMapInsertBench<Medium>/128                    [m[0;33m    112097 ns     112111 ns [m[0;36m      8055[m
[m[0;32mMapInsertBench<Medium>/256                    [m[0;33m    276413 ns     276410 ns [m[0;36m      3279[m
[m[0;32mMapInsertBench<Medium>/512                    [m[0;33m    486668 ns     486689 ns [m[0;36m      1276[m
[m[0;32mMapInsertBench<Medium>/1024                   [m[0;33m   1191803 ns    1191889 ns [m[0;36m       488[m
[m[0;34mMapInsertBench<Medium>_BigO                   [m[0;33m    115.28 NlgN     115.29 NlgN [m
[m[0;34mMapInsertBench<Medium>_RMS                    [m[0;33m        10 %         10 % [m
[m[0;32mMapInsertBench<Large>/1/iterations:500        [m[0;33m       358 ns        252 ns [m[0;36m       500[m
[m[0;32mMapInsertBench<Large>/2/iterations:500        [m[0;33m      1379 ns        604 ns [m[0;36m       500[m
[m[0;32mMapInsertBench<Large>/4/iterations:500        [m[0;33m    309671 ns     308725 ns [m[0;36m       500[m
[m[0;32mMapInsertBench<Large>/8/iterations:500        [m[0;33m   1614330 ns    1614225 ns [m[0;36m       500[m
[m[0;32mMapInsertBench<Large>/16/iterations:500       [m[0;33m   4578826 ns    4578778 ns [m[0;36m       500[m
[m[0;32mMapInsertBench<Large>/32/iterations:500       [m[0;33m  13327418 ns   13327552 ns [m[0;36m       500[m
[m[0;32mMapInsertBench<Large>/64/iterations:500       [m[0;33m  26322241 ns   26321444 ns [m[0;36m       500[m
[m[0;32mMapInsertBench<Large>/128/iterations:500      [m[0;33m  67845815 ns   67844112 ns [m[0;36m       500[m
[m[0;32mMapInsertBench<Large>/256/iterations:500      [m[0;33m 171927892 ns  171909779 ns [m[0;36m       500[m
[m[0;34mMapInsertBench<Large>_BigO                    [m[0;33m  82218.26 NlgN   82210.74 NlgN [m
[m[0;34mMapInsertBench<Large>_RMS                     [m[0;33m         9 %          9 % [m
[m[0;32mMapEraseBench<Small>/1                        [m[0;33m         4 ns          4 ns [m[0;36m 181357044[m
[m[0;32mMapEraseBench<Small>/2                        [m[0;33m         2 ns          2 ns [m[0;36m 415888134[m
[m[0;32mMapEraseBench<Small>/4                        [m[0;33m         2 ns          2 ns [m[0;36m 321203648[m
[m[0;32mMapEraseBench<Small>/8                        [m[0;33m         4 ns          4 ns [m[0;36m 172148452[m
[m[0;32mMapEraseBench<Small>/16                       [m[0;33m         5 ns          5 ns [m[0;36m 139436637[m
[m[0;32mMapEraseBench<Small>/32                       [m[0;33m         6 ns          6 ns [m[0;36m 115564369[m
[m[0;32mMapEraseBench<Small>/64                       [m[0;33m         7 ns          7 ns [m[0;36m  99498254[m
[m[0;32mMapEraseBench<Small>/128                      [m[0;33m         8 ns          8 ns [m[0;36m  85257260[m
[m[0;34mMapEraseBench<Small>_BigO                     [m[0;33m      1.19 lgN       1.19 lgN [m
[m[0;34mMapEraseBench<Small>_RMS                      [m[0;33m        30 %         30 % [m
[m[0;32mMapEraseBench<Medium>/1                       [m[0;33m         6 ns          6 ns [m[0;36m 115982213[m
[m[0;32mMapEraseBench<Medium>/2                       [m[0;33m       197 ns        197 ns [m[0;36m   3569349[m
[m[0;32mMapEraseBench<Medium>/4                       [m[0;33m       385 ns        385 ns [m[0;36m   1816456[m
[m[0;32mMapEraseBench<Medium>/8                       [m[0;33m       584 ns        584 ns [m[0;36m   1215052[m
[m[0;32mMapEraseBench<Medium>/16                      [m[0;33m       967 ns        967 ns [m[0;36m    718133[m
[m[0;32mMapEraseBench<Medium>/32                      [m[0;33m      1348 ns       1348 ns [m[0;36m    508520[m
[m[0;32mMapEraseBench<Medium>/64                      [m[0;33m      1729 ns       1729 ns [m[0;36m    407370[m
[m[0;32mMapEraseBench<Medium>/128                     [m[0;33m      2127 ns       2127 ns [m[0;36m    331912[m
[m[0;32mMapEraseBench<Medium>/256                     [m[0;33m      2478 ns       2478 ns [m[0;36m    281370[m
[m[0;32mMapEraseBench<Medium>/512                     [m[0;33m      2863 ns       2863 ns [m[0;36m    245081[m
[m[0;32mMapEraseBench<Medium>/1024                    [m[0;33m      3256 ns       3256 ns [m[0;36m    214388[m
[m[0;34mMapEraseBench<Medium>_BigO                    [m[0;33m    303.22 lgN     303.22 lgN [m
[m[0;34mMapEraseBench<Medium>_RMS                     [m[0;33m        12 %         12 % [m
[m[0;32mMapEraseBench<Large>/1/iterations:500         [m[0;33m       518 ns        515 ns [m[0;36m       500[m
[m[0;32mMapEraseBench<Large>/2/iterations:500         [m[0;33m    130077 ns     130079 ns [m[0;36m       500[m
[m[0;32mMapEraseBench<Large>/4/iterations:500         [m[0;33m    204745 ns     204747 ns [m[0;36m       500[m
[m[0;32mMapEraseBench<Large>/8/iterations:500         [m[0;33m    311201 ns     311205 ns [m[0;36m       500[m
[m[0;32mMapEraseBench<Large>/16/iterations:500        [m[0;33m    542255 ns     542262 ns [m[0;36m       500[m
[m[0;32mMapEraseBench<Large>/32/iterations:500        [m[0;33m    823201 ns     823198 ns [m[0;36m       500[m
[m[0;32mMapEraseBench<Large>/64/iterations:500        [m[0;33m   1102567 ns    1102579 ns [m[0;36m       500[m
[m[0;32mMapEraseBench<Large>/128/iterations:500       [m[0;33m   1346624 ns    1346623 ns [m[0;36m       500[m
[m[0;32mMapEraseBench<Large>/256/iterations:500       [m[0;33m   1596059 ns    1596079 ns [m[0;36m       500[m
[m[0;34mMapEraseBench<Large>_BigO                     [m[0;33m 179257.07 lgN  179258.30 lgN [m
[m[0;34mMapEraseBench<Large>_RMS                      [m[0;33m        19 %         19 % [m
[m[0;32mMapSwapBench<Small>/1                         [m[0;33m         3 ns          3 ns [m[0;36m 222200689[m
[m[0;32mMapSwapBench<Small>/2                         [m[0;33m         3 ns          3 ns [m[0;36m 218556264[m
[m[0;32mMapSwapBench<Small>/4                         [m[0;33m         3 ns          3 ns [m[0;36m 218504643[m
[m[0;32mMapSwapBench<Small>/8                         [m[0;33m         3 ns          3 ns [m[0;36m 219652082[m
[m[0;32mMapSwapBench<Small>/16                        [m[0;33m         3 ns          3 ns [m[0;36m 220142786[m
[m[0;32mMapSwapBench<Small>/32                        [m[0;33m         3 ns          3 ns [m[0;36m 220423564[m
[m[0;32mMapSwapBench<Small>/64                        [m[0;33m         3 ns          3 ns [m[0;36m 215986097[m
[m[0;32mMapSwapBench<Small>/128                       [m[0;33m         3 ns          3 ns [m[0;36m 220043451[m
[m[0;34mMapSwapBench<Small>_BigO                      [m[0;33m      3.20 (1)       3.20 (1) [m
[m[0;34mMapSwapBench<Small>_RMS                       [m[0;33m         1 %          1 % [m
[m[0;32mMapSwapBench<Medium>/1                        [m[0;33m         3 ns          3 ns [m[0;36m 223499557[m
[m[0;32mMapSwapBench<Medium>/2                        [m[0;33m         3 ns          3 ns [m[0;36m 225153543[m
[m[0;32mMapSwapBench<Medium>/4                        [m[0;33m         3 ns          3 ns [m[0;36m 223985393[m
[m[0;32mMapSwapBench<Medium>/8                        [m[0;33m         3 ns          3 ns [m[0;36m 231022794[m
[m[0;32mMapSwapBench<Medium>/16                       [m[0;33m         3 ns          3 ns [m[0;36m 233270836[m
[m[0;32mMapSwapBench<Medium>/32                       [m[0;33m         3 ns          3 ns [m[0;36m 227145268[m
[m[0;32mMapSwapBench<Medium>/64                       [m[0;33m         3 ns          3 ns [m[0;36m 233005965[m
[m[0;32mMapSwapBench<Medium>/128                      [m[0;33m         3 ns          3 ns [m[0;36m 228896376[m
[m[0;32mMapSwapBench<Medium>/256                      [m[0;33m         3 ns          3 ns [m[0;36m 218193846[m
[m[0;32mMapSwapBench<Medium>/512                      [m[0;33m         3 ns          3 ns [m[0;36m 223580984[m
[m[0;32mMapSwapBench<Medium>/1024                     [m[0;33m         3 ns          3 ns [m[0;36m 201787288[m
[m[0;34mMapSwapBench<Medium>_BigO                     [m[0;33m      3.10 (1)       3.10 (1) [m
[m[0;34mMapSwapBench<Medium>_RMS                      [m[0;33m         2 %          2 % [m
[m[0;32mMapSwapBench<Large>/1                         [m[0;33m         3 ns          3 ns [m[0;36m 227153722[m
[m[0;32mMapSwapBench<Large>/2                         [m[0;33m         3 ns          3 ns [m[0;36m 231920714[m
[m[0;32mMapSwapBench<Large>/4                         [m[0;33m         3 ns          3 ns [m[0;36m 232478593[m
[m[0;32mMapSwapBench<Large>/8                         [m[0;33m         3 ns          3 ns [m[0;36m 232033673[m
[m[0;32mMapSwapBench<Large>/16                        [m[0;33m         3 ns          3 ns [m[0;36m 229124348[m
[m[0;32mMapSwapBench<Large>/32                        [m[0;33m         3 ns          3 ns [m[0;36m 224130099[m
[m[0;32mMapSwapBench<Large>/64                        [m[0;33m         3 ns          3 ns [m[0;36m 232707483[m
[m[0;32mMapSwapBench<Large>/128                       [m[0;33m         3 ns          3 ns [m[0;36m 226581832[m
[m[0;32mMapSwapBench<Large>/256                       [m[0;33m         3 ns          3 ns [m[0;36m 226334239[m
[m[0;34mMapSwapBench<Large>_BigO                      [m[0;33m      3.06 (1)       3.06 (1) [m
[m[0;34mMapSwapBench<Large>_RMS                       [m[0;33m         2 %          2 % [m
[m[0;32mMapCountBench<Small>/1                        [m[0;33m         1 ns          1 ns [m[0;36m 485778852[m
[m[0;32mMapCountBench<Small>/2                        [m[0;33m         2 ns          2 ns [m[0;36m 334685250[m
[m[0;32mMapCountBench<Small>/4                        [m[0;33m         3 ns          3 ns [m[0;36m 284787549[m
[m[0;32mMapCountBench<Small>/8                        [m[0;33m         4 ns          4 ns [m[0;36m 182257061[m
[m[0;32mMapCountBench<Small>/16                       [m[0;33m         5 ns          5 ns [m[0;36m 144859071[m
[m[0;32mMapCountBench<Small>/32                       [m[0;33m         6 ns          6 ns [m[0;36m 120973871[m
[m[0;32mMapCountBench<Small>/64                       [m[0;33m         7 ns          7 ns [m[0;36m 101112500[m
[m[0;32mMapCountBench<Small>/128                      [m[0;33m         8 ns          8 ns [m[0;36m  88777719[m
[m[0;34mMapCountBench<Small>_BigO                     [m[0;33m      1.16 lgN       1.16 lgN [m
[m[0;34mMapCountBench<Small>_RMS                      [m[0;33m        15 %         15 % [m
[m[0;32mMapCountBench<Medium>/1                       [m[0;33m       383 ns        383 ns [m[0;36m   1830365[m
[m[0;32mMapCountBench<Medium>/2                       [m[0;33m       573 ns        573 ns [m[0;36m   1222668[m
[m[0;32mMapCountBench<Medium>/4                       [m[0;33m       765 ns        765 ns [m[0;36m    903596[m
[m[0;32mMapCountBench<Medium>/8                       [m[0;33m       957 ns        957 ns [m[0;36m    730100[m
[m[0;32mMapCountBench<Medium>/16                      [m[0;33m      1342 ns       1342 ns [m[0;36m    522505[m
[m[0;32mMapCountBench<Medium>/32                      [m[0;33m      1718 ns       1718 ns [m[0;36m    405314[m
[m[0;32mMapCountBench<Medium>/64                      [m[0;33m      2123 ns       2123 ns [m[0;36m    333397[m
[m[0;32mMapCountBench<Medium>/128                     [m[0;33m      2471 ns       2471 ns [m[0;36m    282337[m
[m[0;32mMapCountBench<Medium>/256                     [m[0;33m      2871 ns       2871 ns [m[0;36m    244716[m
[m[0;32mMapCountBench<Medium>/512                     [m[0;33m      3282 ns       3270 ns [m[0;36m    209935[m
[m[0;32mMapCountBench<Medium>/1024                    [m[0;33m      3701 ns       3694 ns [m[0;36m    189881[m
[m[0;34mMapCountBench<Medium>_BigO                    [m[0;33m    359.67 lgN     359.21 lgN [m
[m[0;34mMapCountBench<Medium>_RMS                     [m[0;33m         8 %          8 % [m
[m[0;32mMapCountBench<Large>/1                        [m[0;33m    256312 ns     256313 ns [m[0;36m      2744[m
[m[0;32mMapCountBench<Large>/2                        [m[0;33m    335988 ns     335989 ns [m[0;36m      2076[m
[m[0;32mMapCountBench<Large>/4                        [m[0;33m    419729 ns     419729 ns [m[0;36m      1638[m
[m[0;32mMapCountBench<Large>/8                        [m[0;33m    535052 ns     535053 ns [m[0;36m      1313[m
[m[0;32mMapCountBench<Large>/16                       [m[0;33m    796045 ns     796047 ns [m[0;36m       895[m
[m[0;32mMapCountBench<Large>/32                       [m[0;33m   1080109 ns    1080121 ns [m[0;36m       651[m
[m[0;32mMapCountBench<Large>/64                       [m[0;33m   1341202 ns    1341208 ns [m[0;36m       511[m
[m[0;32mMapCountBench<Large>/128                      [m[0;33m   1594105 ns    1594086 ns [m[0;36m       439[m
[m[0;32mMapCountBench<Large>/256                      [m[0;33m   1902785 ns    1902778 ns [m[0;36m       361[m
[m[0;34mMapCountBench<Large>_BigO                     [m[0;33m 224478.19 lgN  224477.85 lgN [m
[m[0;34mMapCountBench<Large>_RMS                      [m[0;33m        13 %         13 % [m
[m[0;32mMapFindBench<Small>/1                         [m[0;33m         1 ns          1 ns [m[0;36m 539672630[m
[m[0;32mMapFindBench<Small>/2                         [m[0;33m         2 ns          2 ns [m[0;36m 407786081[m
[m[0;32mMapFindBench<Small>/4                         [m[0;33m         4 ns          4 ns [m[0;36m 195060521[m
[m[0;32mMapFindBench<Small>/8                         [m[0;33m         4 ns          4 ns [m[0;36m 162377272[m
[m[0;32mMapFindBench<Small>/16                        [m[0;33m         6 ns          6 ns [m[0;36m 121791062[m
[m[0;32mMapFindBench<Small>/32                        [m[0;33m         7 ns          7 ns [m[0;36m  97528846[m
[m[0;32mMapFindBench<Small>/64                        [m[0;33m         9 ns          9 ns [m[0;36m  81219875[m
[m[0;32mMapFindBench<Small>/128                       [m[0;33m        10 ns         10 ns [m[0;36m  65215094[m
[m[0;34mMapFindBench<Small>_BigO                      [m[0;33m      1.46 lgN       1.46 lgN [m
[m[0;34mMapFindBench<Small>_RMS                       [m[0;33m        10 %         10 % [m
[m[0;32mMapFindBench<Medium>/1                        [m[0;33m       390 ns        390 ns [m[0;36m   1811197[m
[m[0;32mMapFindBench<Medium>/2                        [m[0;33m       585 ns        585 ns [m[0;36m   1202971[m
[m[0;32mMapFindBench<Medium>/4                        [m[0;33m       777 ns        777 ns [m[0;36m    904523[m
[m[0;32mMapFindBench<Medium>/8                        [m[0;33m       964 ns        964 ns [m[0;36m    718357[m
[m[0;32mMapFindBench<Medium>/16                       [m[0;33m      1348 ns       1348 ns [m[0;36m    515221[m
[m[0;32mMapFindBench<Medium>/32                       [m[0;33m      1715 ns       1715 ns [m[0;36m    404265[m
[m[0;32mMapFindBench<Medium>/64                       [m[0;33m      2113 ns       2113 ns [m[0;36m    331683[m
[m[0;32mMapFindBench<Medium>/128                      [m[0;33m      2487 ns       2487 ns [m[0;36m    282891[m
[m[0;32mMapFindBench<Medium>/256                      [m[0;33m      2878 ns       2878 ns [m[0;36m    235099[m
[m[0;32mMapFindBench<Medium>/512                      [m[0;33m      3263 ns       3263 ns [m[0;36m    215135[m
[m[0;32mMapFindBench<Medium>/1024                     [m[0;33m      3675 ns       3671 ns [m[0;36m    188937[m
[m[0;34mMapFindBench<Medium>_BigO                     [m[0;33m    359.04 lgN     358.93 lgN [m
[m[0;34mMapFindBench<Medium>_RMS                      [m[0;33m         8 %          8 % [m
[m[0;32mMapFindBench<Large>/1                         [m[0;33m    270776 ns     270357 ns [m[0;36m      2724[m
[m[0;32mMapFindBench<Large>/2                         [m[0;33m    348499 ns     348018 ns [m[0;36m      2010[m
[m[0;32mMapFindBench<Large>/4                         [m[0;33m    445609 ns     445610 ns [m[0;36m      1537[m
[m[0;32mMapFindBench<Large>/8                         [m[0;33m    539708 ns     539707 ns [m[0;36m      1281[m
[m[0;32mMapFindBench<Large>/16                        [m[0;33m    792124 ns     792126 ns [m[0;36m       880[m
[m[0;32mMapFindBench<Large>/32                        [m[0;33m   1076346 ns    1076350 ns [m[0;36m       654[m
[m[0;32mMapFindBench<Large>/64                        [m[0;33m   1334430 ns    1334420 ns [m[0;36m       526[m
[m[0;32mMapFindBench<Large>/128                       [m[0;33m   1594189 ns    1594191 ns [m[0;36m       443[m
[m[0;32mMapFindBench<Large>/256                       [m[0;33m   1902598 ns    1902619 ns [m[0;36m       378[m
[m[0;34mMapFindBench<Large>_BigO                      [m[0;33m 224488.98 lgN  224487.37 lgN [m
[m[0;34mMapFindBench<Large>_RMS                       [m[0;33m        13 %         13 % [m
[m[0;32mMapEqualRangeBench<Small>/1                   [m[0;33m         2 ns          2 ns [m[0;36m 324474787[m
[m[0;32mMapEqualRangeBench<Small>/2                   [m[0;33m         3 ns          3 ns [m[0;36m 264389307[m
[m[0;32mMapEqualRangeBench<Small>/4                   [m[0;33m         3 ns          3 ns [m[0;36m 224029174[m
[m[0;32mMapEqualRangeBench<Small>/8                   [m[0;33m         4 ns          4 ns [m[0;36m 161511304[m
[m[0;32mMapEqualRangeBench<Small>/16                  [m[0;33m         5 ns          5 ns [m[0;36m 132066999[m
[m[0;32mMapEqualRangeBench<Small>/32                  [m[0;33m         6 ns          6 ns [m[0;36m 111695596[m
[m[0;32mMapEqualRangeBench<Small>/64                  [m[0;33m         7 ns          7 ns [m[0;36m  95650837[m
[m[0;32mMapEqualRangeBench<Small>/128                 [m[0;33m         8 ns          8 ns [m[0;36m  84963344[m
[m[0;34mMapEqualRangeBench<Small>_BigO                [m[0;33m      1.26 lgN       1.26 lgN [m
[m[0;34mMapEqualRangeBench<Small>_RMS                 [m[0;33m        20 %         20 % [m
[m[0;32mMapEqualRangeBench<Medium>/1                  [m[0;33m       383 ns        383 ns [m[0;36m   1829814[m
[m[0;32mMapEqualRangeBench<Medium>/2                  [m[0;33m       576 ns        576 ns [m[0;36m   1210890[m
[m[0;32mMapEqualRangeBench<Medium>/4                  [m[0;33m       769 ns        769 ns [m[0;36m    909562[m
[m[0;32mMapEqualRangeBench<Medium>/8                  [m[0;33m       956 ns        956 ns [m[0;36m    726664[m
[m[0;32mMapEqualRangeBench<Medium>/16                 [m[0;33m      1340 ns       1340 ns [m[0;36m    520375[m
[m[0;32mMapEqualRangeBench<Medium>/32                 [m[0;33m      1743 ns       1743 ns [m[0;36m    402395[m
[m[0;32mMapEqualRangeBench<Medium>/64                 [m[0;33m      2104 ns       2104 ns [m[0;36m    333375[m
[m[0;32mMapEqualRangeBench<Medium>/128                [m[0;33m      2480 ns       2480 ns [m[0;36m    283033[m
[m[0;32mMapEqualRangeBench<Medium>/256                [m[0;33m      2881 ns       2881 ns [m[0;36m    243693[m
[m[0;32mMapEqualRangeBench<Medium>/512                [m[0;33m      3253 ns       3253 ns [m[0;36m    214526[m
[m[0;32mMapEqualRangeBench<Medium>/1024               [m[0;33m      3650 ns       3650 ns [m[0;36m    191920[m
[m[0;34mMapEqualRangeBench<Medium>_BigO               [m[0;33m    358.08 lgN     358.08 lgN [m
[m[0;34mMapEqualRangeBench<Medium>_RMS                [m[0;33m         8 %          8 % [m
[m[0;32mMapEqualRangeBench<Large>/1                   [m[0;33m    255834 ns     255835 ns [m[0;36m      2667[m
[m[0;32mMapEqualRangeBench<Large>/2                   [m[0;33m    341516 ns     341520 ns [m[0;36m      2057[m
[m[0;32mMapEqualRangeBench<Large>/4                   [m[0;33m    421137 ns     421141 ns [m[0;36m      1638[m
[m[0;32mMapEqualRangeBench<Large>/8                   [m[0;33m    531078 ns     531083 ns [m[0;36m      1322[m
[m[0;32mMapEqualRangeBench<Large>/16                  [m[0;33m    802667 ns     802675 ns [m[0;36m       876[m
[m[0;32mMapEqualRangeBench<Large>/32                  [m[0;33m   1075108 ns    1075109 ns [m[0;36m       662[m
[m[0;32mMapEqualRangeBench<Large>/64                  [m[0;33m   1326892 ns    1326891 ns [m[0;36m       529[m
[m[0;32mMapEqualRangeBench<Large>/128                 [m[0;33m   1580797 ns    1580797 ns [m[0;36m       433[m
[m[0;32mMapEqualRangeBench<Large>/256                 [m[0;33m   1839142 ns    1839142 ns [m[0;36m       379[m
[m[0;34mMapEqualRangeBench<Large>_BigO                [m[0;33m 221094.56 lgN  221094.91 lgN [m
[m[0;34mMapEqualRangeBench<Large>_RMS                 [m[0;33m        12 %         12 % [m
[m[0;32mMapLowerBoundBench<Small>/1                   [m[0;33m         1 ns          1 ns [m[0;36m 716778913[m
[m[0;32mMapLowerBoundBench<Small>/2                   [m[0;33m         1 ns          1 ns [m[0;36m 482997935[m
[m[0;32mMapLowerBoundBench<Small>/4                   [m[0;33m         4 ns          4 ns [m[0;36m 194792266[m
[m[0;32mMapLowerBoundBench<Small>/8                   [m[0;33m         4 ns          4 ns [m[0;36m 161611809[m
[m[0;32mMapLowerBoundBench<Small>/16                  [m[0;33m         6 ns          6 ns [m[0;36m 121488720[m
[m[0;32mMapLowerBoundBench<Small>/32                  [m[0;33m         7 ns          7 ns [m[0;36m  95908747[m
[m[0;32mMapLowerBoundBench<Small>/64                  [m[0;33m         9 ns          9 ns [m[0;36m  80605260[m
[m[0;32mMapLowerBoundBench<Small>/128                 [m[0;33m        10 ns         10 ns [m[0;36m  69513047[m
[m[0;34mMapLowerBoundBench<Small>_BigO                [m[0;33m      1.45 lgN       1.45 lgN [m
[m[0;34mMapLowerBoundBench<Small>_RMS                 [m[0;33m         8 %          8 % [m
[m[0;32mMapLowerBoundBench<Medium>/1                  [m[0;33m       191 ns        191 ns [m[0;36m   3648044[m
[m[0;32mMapLowerBoundBench<Medium>/2                  [m[0;33m       385 ns        385 ns [m[0;36m   1824469[m
[m[0;32mMapLowerBoundBench<Medium>/4                  [m[0;33m       584 ns        582 ns [m[0;36m   1170486[m
[m[0;32mMapLowerBoundBench<Medium>/8                  [m[0;33m       774 ns        771 ns [m[0;36m    902526[m
[m[0;32mMapLowerBoundBench<Medium>/16                 [m[0;33m      1158 ns       1153 ns [m[0;36m    608523[m
[m[0;32mMapLowerBoundBench<Medium>/32                 [m[0;33m      1544 ns       1538 ns [m[0;36m    455650[m
[m[0;32mMapLowerBoundBench<Medium>/64                 [m[0;33m      1947 ns       1938 ns [m[0;36m    355519[m
[m[0;32mMapLowerBoundBench<Medium>/128                [m[0;33m      2311 ns       2302 ns [m[0;36m    303033[m
[m[0;32mMapLowerBoundBench<Medium>/256                [m[0;33m      2710 ns       2700 ns [m[0;36m    259758[m
[m[0;32mMapLowerBoundBench<Medium>/512                [m[0;33m      3090 ns       3078 ns [m[0;36m    227631[m
[m[0;32mMapLowerBoundBench<Medium>/1024               [m[0;33m      3517 ns       3504 ns [m[0;36m    201172[m
[m[0;34mMapLowerBoundBench<Medium>_BigO               [m[0;33m    334.40 lgN     333.11 lgN [m
[m[0;34mMapLowerBoundBench<Medium>_RMS                [m[0;33m         8 %          8 % [m
[m[0;32mMapLowerBoundBench<Large>/1                   [m[0;33m    128270 ns     128272 ns [m[0;36m      5458[m
[m[0;32mMapLowerBoundBench<Large>/2                   [m[0;33m    232302 ns     232303 ns [m[0;36m      2962[m
[m[0;32mMapLowerBoundBench<Large>/4                   [m[0;33m    317636 ns     317633 ns [m[0;36m      2226[m
[m[0;32mMapLowerBoundBench<Large>/8                   [m[0;33m    431084 ns     431085 ns [m[0;36m      1630[m
[m[0;32mMapLowerBoundBench<Large>/16                  [m[0;33m    690926 ns     690927 ns [m[0;36m      1018[m
[m[0;32mMapLowerBoundBench<Large>/32                  [m[0;33m    971953 ns     971955 ns [m[0;36m       723[m
[m[0;32mMapLowerBoundBench<Large>/64                  [m[0;33m   1231613 ns    1231618 ns [m[0;36m       565[m
[m[0;32mMapLowerBoundBench<Large>/128                 [m[0;33m   1480677 ns    1480683 ns [m[0;36m       473[m
[m[0;32mMapLowerBoundBench<Large>/256                 [m[0;33m   1739174 ns    1739177 ns [m[0;36m       394[m
[m[0;34mMapLowerBoundBench<Large>_BigO                [m[0;33m 203196.57 lgN  203197.12 lgN [m
[m[0;34mMapLowerBoundBench<Large>_RMS                 [m[0;33m        12 %         12 % [m
[m[0;32mMapUpperBoundBench<Small>/1                   [m[0;33m         1 ns          1 ns [m[0;36m 711192621[m
[m[0;32mMapUpperBoundBench<Small>/2                   [m[0;33m         1 ns          1 ns [m[0;36m 476658597[m
[m[0;32mMapUpperBoundBench<Small>/4                   [m[0;33m         2 ns          2 ns [m[0;36m 357066106[m
[m[0;32mMapUpperBoundBench<Small>/8                   [m[0;33m         2 ns          2 ns [m[0;36m 291381695[m
[m[0;32mMapUpperBoundBench<Small>/16                  [m[0;33m         3 ns          3 ns [m[0;36m 208711324[m
[m[0;32mMapUpperBoundBench<Small>/32                  [m[0;33m         4 ns          4 ns [m[0;36m 158577152[m
[m[0;32mMapUpperBoundBench<Small>/64                  [m[0;33m         5 ns          5 ns [m[0;36m 129922323[m
[m[0;32mMapUpperBoundBench<Small>/128                 [m[0;33m         6 ns          6 ns [m[0;36m 109461574[m
[m[0;34mMapUpperBoundBench<Small>_BigO                [m[0;33m      0.90 lgN       0.90 lgN [m
[m[0;34mMapUpperBoundBench<Small>_RMS                 [m[0;33m        13 %         13 % [m
[m[0;32mMapUpperBoundBench<Medium>/1                  [m[0;33m       192 ns        192 ns [m[0;36m   3657435[m
[m[0;32mMapUpperBoundBench<Medium>/2                  [m[0;33m       382 ns        382 ns [m[0;36m   1837056[m
[m[0;32mMapUpperBoundBench<Medium>/4                  [m[0;33m       573 ns        573 ns [m[0;36m   1221000[m
[m[0;32mMapUpperBoundBench<Medium>/8                  [m[0;33m       767 ns        767 ns [m[0;36m    912164[m
[m[0;32mMapUpperBoundBench<Medium>/16                 [m[0;33m      1147 ns       1147 ns [m[0;36m    609506[m
[m[0;32mMapUpperBoundBench<Medium>/32                 [m[0;33m      1523 ns       1523 ns [m[0;36m    457071[m
[m[0;32mMapUpperBoundBench<Medium>/64                 [m[0;33m      1907 ns       1907 ns [m[0;36m    367473[m
[m[0;32mMapUpperBoundBench<Medium>/128                [m[0;33m      2286 ns       2286 ns [m[0;36m    307168[m
[m[0;32mMapUpperBoundBench<Medium>/256                [m[0;33m      2673 ns       2673 ns [m[0;36m    259716[m
[m[0;32mMapUpperBoundBench<Medium>/512                [m[0;33m      3068 ns       3068 ns [m[0;36m    228470[m
[m[0;32mMapUpperBoundBench<Medium>/1024               [m[0;33m      3455 ns       3455 ns [m[0;36m    201371[m
[m[0;34mMapUpperBoundBench<Medium>_BigO               [m[0;33m    329.93 lgN     329.94 lgN [m
[m[0;34mMapUpperBoundBench<Medium>_RMS                [m[0;33m         8 %          8 % [m
[m[0;32mMapUpperBoundBench<Large>/1                   [m[0;33m    131922 ns     131924 ns [m[0;36m      5275[m
[m[0;32mMapUpperBoundBench<Large>/2                   [m[0;33m    234840 ns     234843 ns [m[0;36m      2964[m
[m[0;32mMapUpperBoundBench<Large>/4                   [m[0;33m    334751 ns     334754 ns [m[0;36m      2103[m
[m[0;32mMapUpperBoundBench<Large>/8                   [m[0;33m    444056 ns     444056 ns [m[0;36m      1579[m
[m[0;32mMapUpperBoundBench<Large>/16                  [m[0;33m    702837 ns     702834 ns [m[0;36m      1003[m
[m[0;32mMapUpperBoundBench<Large>/32                  [m[0;33m    971227 ns     971230 ns [m[0;36m       719[m
[m[0;32mMapUpperBoundBench<Large>/64                  [m[0;33m   1241500 ns    1241490 ns [m[0;36m       570[m
[m[0;32mMapUpperBoundBench<Large>/128                 [m[0;33m   1509756 ns    1509739 ns [m[0;36m       469[m
[m[0;32mMapUpperBoundBench<Large>/256                 [m[0;33m   1739035 ns    1739055 ns [m[0;36m       401[m
[m[0;34mMapUpperBoundBench<Large>_BigO                [m[0;33m 205066.51 lgN  205066.46 lgN [m
[m[0;34mMapUpperBoundBench<Large>_RMS                 [m[0;33m        12 %         12 % [m
[m